module go-echo-ent

go 1.19

require (
	entgo.io/ent v0.11.4
	github.com/google/uuid v1.3.0
	github.com/jackc/pgx/v5 v5.2.0
	github.com/labstack/echo/v4 v4.9.1
	go.uber.org/zap v1.24.0
)

require (
	ariga.io/atlas v0.7.3-0.20221011160332-3ca609863edd // indirect
	github.com/agext/levenshtein v1.2.1 // indirect
	github.com/apparentlymart/go-textseg/v13 v13.0.0 // indirect
	github.com/go-openapi/inflect v0.19.0 // indirect
	github.com/golang-jwt/jwt v3.2.2+incompatible // indirect
	github.com/google/go-cmp v0.5.6 // indirect
	github.com/hashicorp/hcl/v2 v2.13.0 // indirect
	github.com/jackc/pgpassfile v1.0.0 // indirect
	github.com/jackc/pgservicefile v0.0.0-20200714003250-2b9c44734f2b // indirect
	github.com/labstack/gommon v0.4.0 // indirect
	github.com/mattn/go-colorable v0.1.13 // indirect
	github.com/mattn/go-isatty v0.0.16 // indirect
	github.com/mitchellh/go-wordwrap v0.0.0-20150314170334-ad45545899c7 // indirect
	github.com/rogpeppe/go-internal v1.6.1 // indirect
	github.com/valyala/bytebufferpool v1.0.0 // indirect
	github.com/valyala/fasttemplate v1.2.2 // indirect
	github.com/zclconf/go-cty v1.8.0 // indirect
	go.uber.org/atomic v1.10.0 // indirect
	go.uber.org/multierr v1.9.0 // indirect
	golang.org/x/crypto v0.4.0 // indirect
	golang.org/x/mod v0.6.0-dev.0.20220419223038-86c51ed26bb4 // indirect
	golang.org/x/net v0.4.0 // indirect
	golang.org/x/sys v0.3.0 // indirect
	golang.org/x/text v0.5.0 // indirect
	golang.org/x/time v0.3.0 // indirect
)
